<?xml version="1.0"?>
<!DOCTYPE svg PUBLIC '-//W3C//DTD SVG 1.0//EN'
          'http://www.w3.org/TR/2001/REC-SVG-20010904/DTD/svg10.dtd'>
<svg xmlns:xlink="http://www.w3.org/1999/xlink" style="fill-opacity:1; color-rendering:auto; color-interpolation:auto; text-rendering:auto; stroke:black; stroke-linecap:square; stroke-miterlimit:10; shape-rendering:auto; stroke-opacity:1; fill:black; stroke-dasharray:none; font-weight:normal; stroke-width:1; font-family:'Dialog'; font-style:normal; stroke-linejoin:miter; font-size:12px; stroke-dashoffset:0; image-rendering:auto;" width="460" height="360" xmlns="http://www.w3.org/2000/svg"
><!--Generated by the Batik Graphics2D SVG Generator--><defs id="genericDefs"
  /><g
  ><defs id="defs1"
    ><clipPath clipPathUnits="userSpaceOnUse" id="clipPath1"
      ><path d="M0 0 L460 0 L460 360 L0 360 L0 0 Z"
      /></clipPath
      ><font horiz-adv-x="60.009766" id="font1"
      ><font-face ascent="92.822266" descent="23.583984" units-per-em="100" style="font-style:normal; font-family:SansSerif; font-weight:normal;"
        /><missing-glyph horiz-adv-x="60.009766" d="M4.9844 -17.6719 L4.9844 70.5156 L54.9844 70.5156 L54.9844 -17.6719 L4.9844 -17.6719 ZM10.5938 -12.1094 L49.4219 -12.1094 L49.4219 64.8906 L10.5938 64.8906 L10.5938 -12.1094 Z"
        /><glyph unicode="0" horiz-adv-x="63.623047" d="M31.7812 66.4062 Q24.1719 66.4062 20.3359 58.9141 Q16.5 51.4219 16.5 36.375 Q16.5 21.3906 20.3359 13.8906 Q24.1719 6.3906 31.7812 6.3906 Q39.4531 6.3906 43.2891 13.8906 Q47.125 21.3906 47.125 36.375 Q47.125 51.4219 43.2891 58.9141 Q39.4531 66.4062 31.7812 66.4062 ZM31.7812 74.2188 Q44.0469 74.2188 50.5156 64.5234 Q56.9844 54.8281 56.9844 36.375 Q56.9844 17.9688 50.5156 8.2734 Q44.0469 -1.4219 31.7812 -1.4219 Q19.5312 -1.4219 13.0625 8.2734 Q6.5938 17.9688 6.5938 36.375 Q6.5938 54.8281 13.0625 64.5234 Q19.5312 74.2188 31.7812 74.2188 Z"
        /><glyph unicode="2" horiz-adv-x="63.623047" d="M19.1875 8.2969 L53.6094 8.2969 L53.6094 0 L7.3281 0 L7.3281 8.2969 Q12.9375 14.1094 22.6328 23.8984 Q32.3281 33.6875 34.8125 36.5312 Q39.5469 41.8438 41.4297 45.5312 Q43.3125 49.2188 43.3125 52.7812 Q43.3125 58.5938 39.2344 62.2578 Q35.1562 65.9219 28.6094 65.9219 Q23.9688 65.9219 18.8203 64.3125 Q13.6719 62.7031 7.8125 59.4219 L7.8125 69.3906 Q13.7656 71.7812 18.9453 73 Q24.125 74.2188 28.4219 74.2188 Q39.75 74.2188 46.4844 68.5547 Q53.2188 62.8906 53.2188 53.4219 Q53.2188 48.9219 51.5391 44.8984 Q49.8594 40.875 45.4062 35.4062 Q44.1875 33.9844 37.6484 27.2188 Q31.1094 20.4531 19.1875 8.2969 Z"
        /><glyph unicode="4" horiz-adv-x="63.623047" d="M37.7969 64.3125 L12.8906 25.3906 L37.7969 25.3906 L37.7969 64.3125 ZM35.2031 72.9062 L47.6094 72.9062 L47.6094 25.3906 L58.0156 25.3906 L58.0156 17.1875 L47.6094 17.1875 L47.6094 0 L37.7969 0 L37.7969 17.1875 L4.8906 17.1875 L4.8906 26.7031 L35.2031 72.9062 Z"
        /><glyph unicode="6" horiz-adv-x="63.623047" d="M33.0156 40.375 Q26.375 40.375 22.4922 35.8359 Q18.6094 31.2969 18.6094 23.3906 Q18.6094 15.5312 22.4922 10.9609 Q26.375 6.3906 33.0156 6.3906 Q39.6562 6.3906 43.5312 10.9609 Q47.4062 15.5312 47.4062 23.3906 Q47.4062 31.2969 43.5312 35.8359 Q39.6562 40.375 33.0156 40.375 ZM52.5938 71.2969 L52.5938 62.3125 Q48.875 64.0625 45.0938 64.9922 Q41.3125 65.9219 37.5938 65.9219 Q27.8281 65.9219 22.6797 59.3281 Q17.5312 52.7344 16.7969 39.4062 Q19.6719 43.6562 24.0234 45.9219 Q28.375 48.1875 33.5938 48.1875 Q44.5781 48.1875 50.9531 41.5234 Q57.3281 34.8594 57.3281 23.3906 Q57.3281 12.1562 50.6875 5.3672 Q44.0469 -1.4219 33.0156 -1.4219 Q20.3594 -1.4219 13.6719 8.2734 Q6.9844 17.9688 6.9844 36.375 Q6.9844 53.6562 15.1875 63.9375 Q23.3906 74.2188 37.2031 74.2188 Q40.9219 74.2188 44.7031 73.4844 Q48.4844 72.75 52.5938 71.2969 Z"
        /><glyph unicode="8" horiz-adv-x="63.623047" d="M31.7812 34.625 Q24.75 34.625 20.7266 30.8594 Q16.7031 27.0938 16.7031 20.5156 Q16.7031 13.9219 20.7266 10.1562 Q24.75 6.3906 31.7812 6.3906 Q38.8125 6.3906 42.8672 10.1797 Q46.9219 13.9688 46.9219 20.5156 Q46.9219 27.0938 42.8984 30.8594 Q38.875 34.625 31.7812 34.625 ZM21.9219 38.8125 Q15.5781 40.375 12.0391 44.7266 Q8.5 49.0781 8.5 55.3281 Q8.5 64.0625 14.7266 69.1406 Q20.9531 74.2188 31.7812 74.2188 Q42.6719 74.2188 48.875 69.1406 Q55.0781 64.0625 55.0781 55.3281 Q55.0781 49.0781 51.5391 44.7266 Q48 40.375 41.7031 38.8125 Q48.8281 37.1562 52.8047 32.3203 Q56.7812 27.4844 56.7812 20.5156 Q56.7812 9.9062 50.3125 4.2422 Q43.8438 -1.4219 31.7812 -1.4219 Q19.7344 -1.4219 13.2578 4.2422 Q6.7812 9.9062 6.7812 20.5156 Q6.7812 27.4844 10.7891 32.3203 Q14.7969 37.1562 21.9219 38.8125 ZM18.3125 54.3906 Q18.3125 48.7344 21.8516 45.5625 Q25.3906 42.3906 31.7812 42.3906 Q38.1406 42.3906 41.7266 45.5625 Q45.3125 48.7344 45.3125 54.3906 Q45.3125 60.0625 41.7266 63.2344 Q38.1406 66.4062 31.7812 66.4062 Q25.3906 66.4062 21.8516 63.2344 Q18.3125 60.0625 18.3125 54.3906 Z"
        /><glyph unicode="r" horiz-adv-x="41.11328" d="M41.1094 46.2969 Q39.5938 47.1719 37.8125 47.5859 Q36.0312 48 33.8906 48 Q26.2656 48 22.1875 43.0469 Q18.1094 38.0938 18.1094 28.8125 L18.1094 0 L9.0781 0 L9.0781 54.6875 L18.1094 54.6875 L18.1094 46.1875 Q20.9531 51.1719 25.4922 53.5859 Q30.0312 56 36.5312 56 Q37.4531 56 38.5781 55.8828 Q39.7031 55.7656 41.0625 55.5156 L41.1094 46.2969 Z"
        /><glyph unicode="b" horiz-adv-x="63.476562" d="M48.6875 27.2969 Q48.6875 37.2031 44.6094 42.8438 Q40.5312 48.4844 33.4062 48.4844 Q26.2656 48.4844 22.1875 42.8438 Q18.1094 37.2031 18.1094 27.2969 Q18.1094 17.3906 22.1875 11.75 Q26.2656 6.1094 33.4062 6.1094 Q40.5312 6.1094 44.6094 11.75 Q48.6875 17.3906 48.6875 27.2969 ZM18.1094 46.3906 Q20.9531 51.2656 25.2734 53.6328 Q29.5938 56 35.5938 56 Q45.5625 56 51.7891 48.0938 Q58.0156 40.1875 58.0156 27.2969 Q58.0156 14.4062 51.7891 6.4922 Q45.5625 -1.4219 35.5938 -1.4219 Q29.5938 -1.4219 25.2734 0.9531 Q20.9531 3.3281 18.1094 8.2031 L18.1094 0 L9.0781 0 L9.0781 75.9844 L18.1094 75.9844 L18.1094 46.3906 Z"
        /><glyph unicode="u" horiz-adv-x="63.378906" d="M8.5 21.5781 L8.5 54.6875 L17.4844 54.6875 L17.4844 21.9219 Q17.4844 14.1562 20.5078 10.2734 Q23.5312 6.3906 29.5938 6.3906 Q36.8594 6.3906 41.0859 11.0312 Q45.3125 15.6719 45.3125 23.6875 L45.3125 54.6875 L54.2969 54.6875 L54.2969 0 L45.3125 0 L45.3125 8.4062 Q42.0469 3.4219 37.7266 1 Q33.4062 -1.4219 27.6875 -1.4219 Q18.2656 -1.4219 13.3828 4.4375 Q8.5 10.2969 8.5 21.5781 Z"
        /><glyph unicode="n" horiz-adv-x="63.378906" d="M54.8906 33.0156 L54.8906 0 L45.9062 0 L45.9062 32.7188 Q45.9062 40.4844 42.875 44.3359 Q39.8438 48.1875 33.7969 48.1875 Q26.5156 48.1875 22.3125 43.5547 Q18.1094 38.9219 18.1094 30.9062 L18.1094 0 L9.0781 0 L9.0781 54.6875 L18.1094 54.6875 L18.1094 46.1875 Q21.3438 51.125 25.7109 53.5625 Q30.0781 56 35.7969 56 Q45.2188 56 50.0547 50.1719 Q54.8906 44.3438 54.8906 33.0156 Z"
        /><glyph unicode=" " horiz-adv-x="31.78711" d=""
        /><glyph unicode="e" horiz-adv-x="61.523438" d="M56.2031 29.5938 L56.2031 25.2031 L14.8906 25.2031 Q15.4844 15.9219 20.4844 11.0625 Q25.4844 6.2031 34.4219 6.2031 Q39.5938 6.2031 44.4531 7.4688 Q49.3125 8.7344 54.1094 11.2812 L54.1094 2.7812 Q49.2656 0.7344 44.1875 -0.3438 Q39.1094 -1.4219 33.8906 -1.4219 Q20.7969 -1.4219 13.1562 6.1953 Q5.5156 13.8125 5.5156 26.8125 Q5.5156 40.2344 12.7656 48.1172 Q20.0156 56 32.3281 56 Q43.3594 56 49.7812 48.8984 Q56.2031 41.7969 56.2031 29.5938 ZM47.2188 32.2344 Q47.125 39.5938 43.0938 43.9922 Q39.0625 48.3906 32.4219 48.3906 Q24.9062 48.3906 20.3906 44.1406 Q15.875 39.8906 15.1875 32.1719 L47.2188 32.2344 Z"
        /><glyph unicode="l" horiz-adv-x="27.783203" d="M9.4219 75.9844 L18.4062 75.9844 L18.4062 0 L9.4219 0 L9.4219 75.9844 Z"
        /><glyph unicode="p" horiz-adv-x="63.476562" d="M18.1094 8.2031 L18.1094 -20.7969 L9.0781 -20.7969 L9.0781 54.6875 L18.1094 54.6875 L18.1094 46.3906 Q20.9531 51.2656 25.2734 53.6328 Q29.5938 56 35.5938 56 Q45.5625 56 51.7891 48.0938 Q58.0156 40.1875 58.0156 27.2969 Q58.0156 14.4062 51.7891 6.4922 Q45.5625 -1.4219 35.5938 -1.4219 Q29.5938 -1.4219 25.2734 0.9531 Q20.9531 3.3281 18.1094 8.2031 ZM48.6875 27.2969 Q48.6875 37.2031 44.6094 42.8438 Q40.5312 48.4844 33.4062 48.4844 Q26.2656 48.4844 22.1875 42.8438 Q18.1094 37.2031 18.1094 27.2969 Q18.1094 17.3906 22.1875 11.75 Q26.2656 6.1094 33.4062 6.1094 Q40.5312 6.1094 44.6094 11.75 Q48.6875 17.3906 48.6875 27.2969 Z"
        /><glyph unicode="m" horiz-adv-x="97.41211" d="M52 44.1875 Q55.375 50.25 60.0625 53.125 Q64.75 56 71.0938 56 Q79.6406 56 84.2812 50.0234 Q88.9219 44.0469 88.9219 33.0156 L88.9219 0 L79.8906 0 L79.8906 32.7188 Q79.8906 40.5781 77.1016 44.3828 Q74.3125 48.1875 68.6094 48.1875 Q61.625 48.1875 57.5703 43.5547 Q53.5156 38.9219 53.5156 30.9062 L53.5156 0 L44.4844 0 L44.4844 32.7188 Q44.4844 40.625 41.7031 44.4062 Q38.9219 48.1875 33.1094 48.1875 Q26.2188 48.1875 22.1641 43.5312 Q18.1094 38.875 18.1094 30.9062 L18.1094 0 L9.0781 0 L9.0781 54.6875 L18.1094 54.6875 L18.1094 46.1875 Q21.1875 51.2188 25.4844 53.6094 Q29.7812 56 35.6875 56 Q41.6562 56 45.8281 52.9766 Q50 49.9531 52 44.1875 Z"
        /><glyph unicode="a" horiz-adv-x="61.279297" d="M34.2812 27.4844 Q23.3906 27.4844 19.1875 25 Q14.9844 22.5156 14.9844 16.5 Q14.9844 11.7188 18.1406 8.9141 Q21.2969 6.1094 26.7031 6.1094 Q34.1875 6.1094 38.7031 11.4062 Q43.2188 16.7031 43.2188 25.4844 L43.2188 27.4844 L34.2812 27.4844 ZM52.2031 31.2031 L52.2031 0 L43.2188 0 L43.2188 8.2969 Q40.1406 3.3281 35.5469 0.9531 Q30.9531 -1.4219 24.3125 -1.4219 Q15.9219 -1.4219 10.9609 3.2969 Q6 8.0156 6 15.9219 Q6 25.1406 12.1797 29.8281 Q18.3594 34.5156 30.6094 34.5156 L43.2188 34.5156 L43.2188 35.4062 Q43.2188 41.6094 39.1406 45 Q35.0625 48.3906 27.6875 48.3906 Q23 48.3906 18.5547 47.2656 Q14.1094 46.1406 10.0156 43.8906 L10.0156 52.2031 Q14.9375 54.1094 19.5781 55.0547 Q24.2188 56 28.6094 56 Q40.4844 56 46.3438 49.8516 Q52.2031 43.7031 52.2031 31.2031 Z"
        /><glyph unicode="S" horiz-adv-x="63.476562" d="M53.5156 70.5156 L53.5156 60.8906 Q47.9062 63.5781 42.9219 64.8984 Q37.9375 66.2188 33.2969 66.2188 Q25.25 66.2188 20.875 63.0938 Q16.5 59.9688 16.5 54.2031 Q16.5 49.3594 19.4062 46.8984 Q22.3125 44.4375 30.4219 42.9219 L36.375 41.7031 Q47.4062 39.5938 52.6562 34.2969 Q57.9062 29 57.9062 20.125 Q57.9062 9.5156 50.8047 4.0469 Q43.7031 -1.4219 29.9844 -1.4219 Q24.8125 -1.4219 18.9766 -0.25 Q13.1406 0.9219 6.8906 3.2188 L6.8906 13.375 Q12.8906 10.0156 18.6562 8.3047 Q24.4219 6.5938 29.9844 6.5938 Q38.4219 6.5938 43.0156 9.9141 Q47.6094 13.2344 47.6094 19.3906 Q47.6094 24.75 44.3125 27.7812 Q41.0156 30.8125 33.5 32.3281 L27.4844 33.5 Q16.4531 35.6875 11.5234 40.375 Q6.5938 45.0625 6.5938 53.4219 Q6.5938 63.0938 13.4062 68.6562 Q20.2188 74.2188 32.1719 74.2188 Q37.3125 74.2188 42.6328 73.2891 Q47.9531 72.3594 53.5156 70.5156 Z"
        /><glyph unicode="-" horiz-adv-x="36.083984" d="M4.8906 31.3906 L31.2031 31.3906 L31.2031 23.3906 L4.8906 23.3906 L4.8906 31.3906 Z"
        /><glyph unicode="d" horiz-adv-x="63.476562" d="M45.4062 46.3906 L45.4062 75.9844 L54.3906 75.9844 L54.3906 0 L45.4062 0 L45.4062 8.2031 Q42.5781 3.3281 38.2578 0.9531 Q33.9375 -1.4219 27.875 -1.4219 Q17.9688 -1.4219 11.7422 6.4922 Q5.5156 14.4062 5.5156 27.2969 Q5.5156 40.1875 11.7422 48.0938 Q17.9688 56 27.875 56 Q33.9375 56 38.2578 53.6328 Q42.5781 51.2656 45.4062 46.3906 ZM14.7969 27.2969 Q14.7969 17.3906 18.875 11.75 Q22.9531 6.1094 30.0781 6.1094 Q37.2031 6.1094 41.3047 11.75 Q45.4062 17.3906 45.4062 27.2969 Q45.4062 37.2031 41.3047 42.8438 Q37.2031 48.4844 30.0781 48.4844 Q22.9531 48.4844 18.875 42.8438 Q14.7969 37.2031 14.7969 27.2969 Z"
        /><glyph unicode="t" horiz-adv-x="39.208984" d="M18.3125 70.2188 L18.3125 54.6875 L36.8125 54.6875 L36.8125 47.7031 L18.3125 47.7031 L18.3125 18.0156 Q18.3125 11.3281 20.1406 9.4219 Q21.9688 7.5156 27.5938 7.5156 L36.8125 7.5156 L36.8125 0 L27.5938 0 Q17.1875 0 13.2344 3.8828 Q9.2812 7.7656 9.2812 18.0156 L9.2812 47.7031 L2.6875 47.7031 L2.6875 54.6875 L9.2812 54.6875 L9.2812 70.2188 L18.3125 70.2188 Z"
        /><glyph unicode="i" horiz-adv-x="27.783203" d="M9.4219 54.6875 L18.4062 54.6875 L18.4062 0 L9.4219 0 L9.4219 54.6875 ZM9.4219 75.9844 L18.4062 75.9844 L18.4062 64.5938 L9.4219 64.5938 L9.4219 75.9844 Z"
        /><glyph unicode="A" horiz-adv-x="68.4082" d="M34.1875 63.1875 L20.7969 26.9062 L47.6094 26.9062 L34.1875 63.1875 ZM28.6094 72.9062 L39.7969 72.9062 L67.5781 0 L57.3281 0 L50.6875 18.7031 L17.8281 18.7031 L11.1875 0 L0.7812 0 L28.6094 72.9062 Z"
      /></font
      ><font horiz-adv-x="60.009766" id="font2"
      ><font-face ascent="92.822266" descent="23.583984" units-per-em="100" style="font-style:normal; font-family:SansSerif; font-weight:bold;"
        /><missing-glyph horiz-adv-x="60.009766" d="M4.9844 -17.6719 L4.9844 70.5156 L54.9844 70.5156 L54.9844 -17.6719 L4.9844 -17.6719 ZM10.5938 -12.1094 L49.4219 -12.1094 L49.4219 64.8906 L10.5938 64.8906 L10.5938 -12.1094 Z"
        /><glyph unicode="X" horiz-adv-x="77.09961" d="M49.8125 37.2031 L75.0938 0 L55.5156 0 L38.4844 24.9062 L21.5781 0 L1.9062 0 L27.2031 37.2031 L2.875 72.9062 L22.5156 72.9062 L38.4844 49.4219 L54.3906 72.9062 L74.125 72.9062 L49.8125 37.2031 Z"
        /><glyph unicode="R" horiz-adv-x="77.00195" d="M35.8906 40.5781 Q41.7969 40.5781 44.3594 42.7734 Q46.9219 44.9688 46.9219 50 Q46.9219 54.9844 44.3594 57.1328 Q41.7969 59.2812 35.8906 59.2812 L27.9844 59.2812 L27.9844 40.5781 L35.8906 40.5781 ZM27.9844 27.5938 L27.9844 0 L9.1875 0 L9.1875 72.9062 L37.8906 72.9062 Q52.2969 72.9062 59.0078 68.0703 Q65.7188 63.2344 65.7188 52.7812 Q65.7188 45.5625 62.2266 40.9219 Q58.7344 36.2812 51.7031 34.0781 Q55.5625 33.2031 58.6172 30.1016 Q61.6719 27 64.7969 20.7031 L75 0 L54.9844 0 L46.0938 18.1094 Q43.4062 23.5781 40.6484 25.5859 Q37.8906 27.5938 33.2969 27.5938 L27.9844 27.5938 Z"
        /><glyph unicode="t" horiz-adv-x="47.802734" d="M27.4844 70.2188 L27.4844 54.6875 L45.5156 54.6875 L45.5156 42.1875 L27.4844 42.1875 L27.4844 19 Q27.4844 15.1875 29 13.8438 Q30.5156 12.5 35.0156 12.5 L44 12.5 L44 0 L29 0 Q18.6562 0 14.3359 4.3203 Q10.0156 8.6406 10.0156 19 L10.0156 42.1875 L1.3125 42.1875 L1.3125 54.6875 L10.0156 54.6875 L10.0156 70.2188 L27.4844 70.2188 Z"
        /><glyph unicode="m" horiz-adv-x="104.19922" d="M59.0781 45.6094 Q62.4062 50.6875 66.9688 53.3438 Q71.5312 56 77 56 Q86.4219 56 91.3594 50.1953 Q96.2969 44.3906 96.2969 33.2969 L96.2969 0 L78.7188 0 L78.7188 28.5156 Q78.7656 29.1562 78.7891 29.8359 Q78.8125 30.5156 78.8125 31.7812 Q78.8125 37.5938 77.1016 40.2109 Q75.3906 42.8281 71.5781 42.8281 Q66.6094 42.8281 63.8984 38.7266 Q61.1875 34.625 61.0781 26.8594 L61.0781 0 L43.5 0 L43.5 28.5156 Q43.5 37.5938 41.9375 40.2109 Q40.375 42.8281 36.375 42.8281 Q31.3438 42.8281 28.6094 38.7031 Q25.875 34.5781 25.875 26.9062 L25.875 0 L8.2969 0 L8.2969 54.6875 L25.875 54.6875 L25.875 46.6875 Q29.1094 51.3125 33.2812 53.6562 Q37.4531 56 42.4844 56 Q48.1406 56 52.4922 53.2656 Q56.8438 50.5312 59.0781 45.6094 Z"
        /><glyph unicode="r" horiz-adv-x="49.316406" d="M49.0312 39.7969 Q46.7344 40.875 44.4609 41.3828 Q42.1875 41.8906 39.8906 41.8906 Q33.1562 41.8906 29.5156 37.5703 Q25.875 33.25 25.875 25.2031 L25.875 0 L8.4062 0 L8.4062 54.6875 L25.875 54.6875 L25.875 45.7031 Q29.25 51.0781 33.6172 53.5391 Q37.9844 56 44.0938 56 Q44.9688 56 45.9922 55.9297 Q47.0156 55.8594 48.9688 55.6094 L49.0312 39.7969 Z"
        /><glyph unicode="g" horiz-adv-x="71.58203" d="M45.6094 9.2812 Q42 4.5 37.6484 2.25 Q33.2969 0 27.5938 0 Q17.5781 0 11.0391 7.8828 Q4.5 15.7656 4.5 27.9844 Q4.5 40.2344 11.0391 48.0703 Q17.5781 55.9062 27.5938 55.9062 Q33.2969 55.9062 37.6484 53.6641 Q42 51.4219 45.6094 46.5781 L45.6094 54.6875 L63.1875 54.6875 L63.1875 5.5156 Q63.1875 -7.6719 54.8594 -14.625 Q46.5312 -21.5781 30.7188 -21.5781 Q25.5938 -21.5781 20.8047 -20.7969 Q16.0156 -20.0156 11.1875 -18.4062 L11.1875 -4.7812 Q15.7656 -7.4219 20.1641 -8.7188 Q24.5625 -10.0156 29 -10.0156 Q37.5938 -10.0156 41.6016 -6.25 Q45.6094 -2.4844 45.6094 5.5156 L45.6094 9.2812 ZM34.0781 43.3125 Q28.6562 43.3125 25.6328 39.3047 Q22.6094 35.2969 22.6094 27.9844 Q22.6094 20.4531 25.5391 16.5781 Q28.4688 12.7031 34.0781 12.7031 Q39.5469 12.7031 42.5781 16.7031 Q45.6094 20.7031 45.6094 27.9844 Q45.6094 35.2969 42.5781 39.3047 Q39.5469 43.3125 34.0781 43.3125 Z"
        /><glyph unicode="a" horiz-adv-x="67.48047" d="M32.9062 24.6094 Q27.4375 24.6094 24.6797 22.7578 Q21.9219 20.9062 21.9219 17.2812 Q21.9219 13.9688 24.1484 12.0859 Q26.375 10.2031 30.3281 10.2031 Q35.25 10.2031 38.625 13.7422 Q42 17.2812 42 22.6094 L42 24.6094 L32.9062 24.6094 ZM59.625 31.2031 L59.625 0 L42 0 L42 8.1094 Q38.4844 3.125 34.0859 0.8516 Q29.6875 -1.4219 23.3906 -1.4219 Q14.8906 -1.4219 9.5938 3.5391 Q4.2969 8.5 4.2969 16.4062 Q4.2969 26.0312 10.9141 30.5234 Q17.5312 35.0156 31.6875 35.0156 L42 35.0156 L42 36.375 Q42 40.5312 38.7266 42.4609 Q35.4531 44.3906 28.5156 44.3906 Q22.9062 44.3906 18.0703 43.2656 Q13.2344 42.1406 9.0781 39.8906 L9.0781 53.2188 Q14.7031 54.5938 20.3672 55.2969 Q26.0312 56 31.6875 56 Q46.4844 56 53.0547 50.1719 Q59.625 44.3438 59.625 31.2031 Z"
        /><glyph unicode="i" horiz-adv-x="34.277344" d="M8.4062 54.6875 L25.875 54.6875 L25.875 0 L8.4062 0 L8.4062 54.6875 ZM8.4062 75.9844 L25.875 75.9844 L25.875 61.7188 L8.4062 61.7188 L8.4062 75.9844 Z"
        /><glyph unicode="d" horiz-adv-x="71.58203" d="M45.6094 46.6875 L45.6094 75.9844 L63.1875 75.9844 L63.1875 0 L45.6094 0 L45.6094 7.9062 Q42 3.0781 37.6484 0.8281 Q33.2969 -1.4219 27.5938 -1.4219 Q17.4844 -1.4219 10.9922 6.6172 Q4.5 14.6562 4.5 27.2969 Q4.5 39.9375 10.9922 47.9688 Q17.4844 56 27.5938 56 Q33.25 56 37.625 53.7344 Q42 51.4688 45.6094 46.6875 ZM34.0781 11.2812 Q39.7031 11.2812 42.6562 15.3828 Q45.6094 19.4844 45.6094 27.2969 Q45.6094 35.1094 42.6562 39.2109 Q39.7031 43.3125 34.0781 43.3125 Q28.5156 43.3125 25.5625 39.2109 Q22.6094 35.1094 22.6094 27.2969 Q22.6094 19.4844 25.5625 15.3828 Q28.5156 11.2812 34.0781 11.2812 Z"
        /><glyph unicode=" " horiz-adv-x="34.814453" d=""
        /><glyph unicode="e" horiz-adv-x="67.822266" d="M62.9844 27.4844 L62.9844 22.5156 L22.125 22.5156 Q22.75 16.3594 26.5625 13.2812 Q30.375 10.2031 37.2031 10.2031 Q42.7188 10.2031 48.5078 11.8438 Q54.2969 13.4844 60.4062 16.7969 L60.4062 3.3281 Q54.2031 0.9844 48 -0.2188 Q41.7969 -1.4219 35.5938 -1.4219 Q20.75 -1.4219 12.5234 6.125 Q4.2969 13.6719 4.2969 27.2969 Q4.2969 40.6719 12.375 48.3359 Q20.4531 56 34.625 56 Q47.5156 56 55.25 48.2422 Q62.9844 40.4844 62.9844 27.4844 ZM45.0156 33.2969 Q45.0156 38.2812 42.1094 41.3359 Q39.2031 44.3906 34.5156 44.3906 Q29.4375 44.3906 26.2656 41.5312 Q23.0938 38.6719 22.3125 33.2969 L45.0156 33.2969 Z"
        /><glyph unicode="y" horiz-adv-x="65.18555" d="M1.2188 54.6875 L18.7031 54.6875 L33.4062 17.5781 L45.9062 54.6875 L63.375 54.6875 L40.375 -5.1719 Q36.9219 -14.3125 32.3047 -17.9453 Q27.6875 -21.5781 20.125 -21.5781 L10.0156 -21.5781 L10.0156 -10.1094 L15.4844 -10.1094 Q19.9219 -10.1094 21.9453 -8.6953 Q23.9688 -7.2812 25.0938 -3.6094 L25.5938 -2.0938 L1.2188 54.6875 Z"
        /><glyph unicode="E" horiz-adv-x="68.31055" d="M9.1875 72.9062 L59.9062 72.9062 L59.9062 58.6875 L27.9844 58.6875 L27.9844 45.125 L58.0156 45.125 L58.0156 30.9062 L27.9844 30.9062 L27.9844 14.2031 L60.9844 14.2031 L60.9844 0 L9.1875 0 L9.1875 72.9062 Z"
        /><glyph unicode="l" horiz-adv-x="34.277344" d="M8.4062 75.9844 L25.875 75.9844 L25.875 0 L8.4062 0 L8.4062 75.9844 Z"
        /><glyph unicode="f" horiz-adv-x="43.50586" d="M44.3906 75.9844 L44.3906 64.5 L34.7188 64.5 Q31 64.5 29.5391 63.1562 Q28.0781 61.8125 28.0781 58.5 L28.0781 54.6875 L43.0156 54.6875 L43.0156 42.1875 L28.0781 42.1875 L28.0781 0 L10.5938 0 L10.5938 42.1875 L1.9062 42.1875 L1.9062 54.6875 L10.5938 54.6875 L10.5938 58.5 Q10.5938 67.4375 15.5781 71.7109 Q20.5625 75.9844 31 75.9844 L44.3906 75.9844 Z"
        /><glyph unicode="C" horiz-adv-x="73.38867" d="M67 4 Q61.8125 1.3125 56.2031 -0.0547 Q50.5938 -1.4219 44.4844 -1.4219 Q26.2656 -1.4219 15.625 8.7656 Q4.9844 18.9531 4.9844 36.375 Q4.9844 53.8594 15.625 64.0391 Q26.2656 74.2188 44.4844 74.2188 Q50.5938 74.2188 56.2031 72.8516 Q61.8125 71.4844 67 68.7969 L67 53.7188 Q61.7656 57.2812 56.6875 58.9375 Q51.6094 60.5938 46 60.5938 Q35.9375 60.5938 30.1797 54.1484 Q24.4219 47.7031 24.4219 36.375 Q24.4219 25.0938 30.1797 18.6484 Q35.9375 12.2031 46 12.2031 Q51.6094 12.2031 56.6875 13.8672 Q61.7656 15.5312 67 19.0938 L67 4 Z"
        /><glyph unicode="z" horiz-adv-x="58.203125" d="M5.7188 54.6875 L53.4219 54.6875 L53.4219 42.4844 L24.6094 12.5 L53.4219 12.5 L53.4219 0 L4.5 0 L4.5 12.2031 L33.2969 42.1875 L5.7188 42.1875 L5.7188 54.6875 Z"
        /><glyph unicode="H" horiz-adv-x="83.69141" d="M9.1875 72.9062 L27.9844 72.9062 L27.9844 45.125 L55.7188 45.125 L55.7188 72.9062 L74.5156 72.9062 L74.5156 0 L55.7188 0 L55.7188 30.9062 L27.9844 30.9062 L27.9844 0 L9.1875 0 L9.1875 72.9062 Z"
        /><glyph unicode="0" horiz-adv-x="69.58008" d="M46 36.5312 Q46 50.2031 43.4375 55.7891 Q40.875 61.375 34.8125 61.375 Q28.7656 61.375 26.1719 55.7891 Q23.5781 50.2031 23.5781 36.5312 Q23.5781 22.7031 26.1719 17.0391 Q28.7656 11.375 34.8125 11.375 Q40.8281 11.375 43.4141 17.0391 Q46 22.7031 46 36.5312 ZM64.7969 36.375 Q64.7969 18.2656 56.9844 8.4219 Q49.1719 -1.4219 34.8125 -1.4219 Q20.4062 -1.4219 12.5938 8.4219 Q4.7812 18.2656 4.7812 36.375 Q4.7812 54.5469 12.5938 64.3828 Q20.4062 74.2188 34.8125 74.2188 Q49.1719 74.2188 56.9844 64.3828 Q64.7969 54.5469 64.7969 36.375 Z"
        /><glyph unicode="5" horiz-adv-x="69.58008" d="M10.5938 72.9062 L57.3281 72.9062 L57.3281 59.0781 L25.5938 59.0781 L25.5938 47.7969 Q27.7344 48.3906 29.9062 48.7109 Q32.0781 49.0312 34.4219 49.0312 Q47.75 49.0312 55.1719 42.3594 Q62.5938 35.6875 62.5938 23.7812 Q62.5938 11.9688 54.5156 5.2734 Q46.4375 -1.4219 32.0781 -1.4219 Q25.875 -1.4219 19.7969 -0.2188 Q13.7188 0.9844 7.7188 3.4219 L7.7188 18.2188 Q13.6719 14.7969 19.0156 13.0859 Q24.3594 11.375 29.1094 11.375 Q35.9375 11.375 39.8672 14.7188 Q43.7969 18.0625 43.7969 23.7812 Q43.7969 29.5469 39.8672 32.8672 Q35.9375 36.1875 29.1094 36.1875 Q25.0469 36.1875 20.4609 35.1328 Q15.875 34.0781 10.5938 31.8906 L10.5938 72.9062 Z"
        /><glyph unicode="," horiz-adv-x="37.98828" d="M10.2031 18.8906 L27.7812 18.8906 L27.7812 4 L15.7188 -14.2031 L5.3281 -14.2031 L10.2031 4 L10.2031 18.8906 Z"
        /><glyph unicode="M" horiz-adv-x="99.51172" d="M9.1875 72.9062 L33.1094 72.9062 L49.7031 33.8906 L66.4062 72.9062 L90.2812 72.9062 L90.2812 0 L72.5156 0 L72.5156 53.3281 L55.7188 14.0156 L43.7969 14.0156 L27 53.3281 L27 0 L9.1875 0 L9.1875 72.9062 Z"
        /><glyph unicode="A" horiz-adv-x="77.39258" d="M53.4219 13.2812 L24.0312 13.2812 L19.3906 0 L0.4844 0 L27.4844 72.9062 L49.9062 72.9062 L76.9062 0 L58.0156 0 L53.4219 13.2812 ZM28.7188 26.8125 L48.6875 26.8125 L38.7188 55.8125 L28.7188 26.8125 Z"
        /><glyph unicode="P" horiz-adv-x="73.291016" d="M9.1875 72.9062 L40.375 72.9062 Q54.2969 72.9062 61.7422 66.7266 Q69.1875 60.5469 69.1875 49.125 Q69.1875 37.6406 61.7422 31.4688 Q54.2969 25.2969 40.375 25.2969 L27.9844 25.2969 L27.9844 0 L9.1875 0 L9.1875 72.9062 ZM27.9844 59.2812 L27.9844 38.9219 L38.375 38.9219 Q43.8438 38.9219 46.8281 41.5781 Q49.8125 44.2344 49.8125 49.125 Q49.8125 54 46.8281 56.6406 Q43.8438 59.2812 38.375 59.2812 L27.9844 59.2812 Z"
        /><glyph unicode="-" horiz-adv-x="41.503906" d="M5.4219 35.8906 L36.0781 35.8906 L36.0781 21.6875 L5.4219 21.6875 L5.4219 35.8906 Z"
        /><glyph unicode="8" horiz-adv-x="69.58008" d="M34.8125 32.625 Q29.5469 32.625 26.7109 29.7422 Q23.875 26.8594 23.875 21.4844 Q23.875 16.1094 26.7109 13.2578 Q29.5469 10.4062 34.8125 10.4062 Q40.0469 10.4062 42.8281 13.2578 Q45.6094 16.1094 45.6094 21.4844 Q45.6094 26.9062 42.8281 29.7656 Q40.0469 32.625 34.8125 32.625 ZM21.0938 38.8125 Q14.4531 40.8281 11.0859 44.9766 Q7.7188 49.125 7.7188 55.3281 Q7.7188 64.5469 14.6016 69.3828 Q21.4844 74.2188 34.8125 74.2188 Q48.0469 74.2188 54.9297 69.4062 Q61.8125 64.5938 61.8125 55.3281 Q61.8125 49.125 58.4219 44.9766 Q55.0312 40.8281 48.3906 38.8125 Q55.8125 36.7656 59.5938 32.1562 Q63.375 27.5469 63.375 20.5156 Q63.375 9.6719 56.1719 4.125 Q48.9688 -1.4219 34.8125 -1.4219 Q20.6094 -1.4219 13.3594 4.125 Q6.1094 9.6719 6.1094 20.5156 Q6.1094 27.5469 9.8906 32.1562 Q13.6719 36.7656 21.0938 38.8125 ZM25.4844 53.4219 Q25.4844 49.0781 27.9062 46.7344 Q30.3281 44.3906 34.8125 44.3906 Q39.2031 44.3906 41.6016 46.7344 Q44 49.0781 44 53.4219 Q44 57.7656 41.6016 60.0859 Q39.2031 62.4062 34.8125 62.4062 Q30.3281 62.4062 27.9062 60.0625 Q25.4844 57.7188 25.4844 53.4219 Z"
        /><glyph unicode="(" horiz-adv-x="45.703125" d="M37.7031 -13.1875 L23.1875 -13.1875 Q15.7188 -1.125 12.1562 9.7422 Q8.5938 20.6094 8.5938 31.2969 Q8.5938 42 12.1797 52.9609 Q15.7656 63.9219 23.1875 75.875 L37.7031 75.875 Q31.4531 64.3125 28.3281 53.25 Q25.2031 42.1875 25.2031 31.3906 Q25.2031 20.6094 28.2969 9.5234 Q31.3906 -1.5625 37.7031 -13.1875 Z"
        /><glyph unicode="b" horiz-adv-x="71.58203" d="M37.5 11.2812 Q43.1094 11.2812 46.0703 15.3828 Q49.0312 19.4844 49.0312 27.2969 Q49.0312 35.1094 46.0703 39.2109 Q43.1094 43.3125 37.5 43.3125 Q31.8906 43.3125 28.8828 39.1875 Q25.875 35.0625 25.875 27.2969 Q25.875 19.5312 28.8828 15.4062 Q31.8906 11.2812 37.5 11.2812 ZM25.875 46.6875 Q29.5 51.4688 33.8906 53.7344 Q38.2812 56 44 56 Q54.1094 56 60.6016 47.9688 Q67.0938 39.9375 67.0938 27.2969 Q67.0938 14.6562 60.6016 6.6172 Q54.1094 -1.4219 44 -1.4219 Q38.2812 -1.4219 33.8906 0.8516 Q29.5 3.125 25.875 7.9062 L25.875 0 L8.4062 0 L8.4062 75.9844 L25.875 75.9844 L25.875 46.6875 Z"
        /><glyph unicode="N" horiz-adv-x="83.69141" d="M9.1875 72.9062 L30.1719 72.9062 L56.6875 22.9062 L56.6875 72.9062 L74.5156 72.9062 L74.5156 0 L53.5156 0 L27 50 L27 0 L9.1875 0 L9.1875 72.9062 Z"
        /><glyph unicode="/" horiz-adv-x="36.523438" d="M25.6875 72.9062 L36.5312 72.9062 L10.7969 -9.2812 L0 -9.2812 L25.6875 72.9062 Z"
        /><glyph unicode=")" horiz-adv-x="45.703125" d="M8.0156 -13.1875 Q14.2656 -1.5625 17.3906 9.5234 Q20.5156 20.6094 20.5156 31.3906 Q20.5156 42.1875 17.3906 53.25 Q14.2656 64.3125 8.0156 75.875 L22.5156 75.875 Q29.9375 63.9219 33.5234 52.9609 Q37.1094 42 37.1094 31.2969 Q37.1094 20.6094 33.5469 9.7422 Q29.9844 -1.125 22.5156 -13.1875 L8.0156 -13.1875 Z"
        /><glyph unicode="B" horiz-adv-x="76.2207" d="M38.375 44.6719 Q42.8281 44.6719 45.1172 46.625 Q47.4062 48.5781 47.4062 52.3906 Q47.4062 56.1562 45.1172 58.1328 Q42.8281 60.1094 38.375 60.1094 L27.9844 60.1094 L27.9844 44.6719 L38.375 44.6719 ZM39.0156 12.7969 Q44.6719 12.7969 47.5312 15.1875 Q50.3906 17.5781 50.3906 22.4062 Q50.3906 27.1562 47.5625 29.5234 Q44.7344 31.8906 39.0156 31.8906 L27.9844 31.8906 L27.9844 12.7969 L39.0156 12.7969 ZM56.5 39.0156 Q62.5469 37.25 65.8672 32.5156 Q69.1875 27.7812 69.1875 20.9062 Q69.1875 10.3594 62.0625 5.1797 Q54.9375 0 40.375 0 L9.1875 0 L9.1875 72.9062 L37.4062 72.9062 Q52.5938 72.9062 59.4062 68.3125 Q66.2188 63.7188 66.2188 53.6094 Q66.2188 48.2969 63.7266 44.5625 Q61.2344 40.8281 56.5 39.0156 Z"
        /><glyph unicode="2" horiz-adv-x="69.58008" d="M28.8125 13.8125 L60.8906 13.8125 L60.8906 0 L7.9062 0 L7.9062 13.8125 L34.5156 37.3125 Q38.0938 40.5312 39.7969 43.6094 Q41.5 46.6875 41.5 50 Q41.5 55.125 38.0625 58.25 Q34.625 61.375 28.9062 61.375 Q24.5156 61.375 19.2891 59.5 Q14.0625 57.625 8.1094 53.9062 L8.1094 69.9219 Q14.4531 72.0156 20.6562 73.1172 Q26.8594 74.2188 32.8125 74.2188 Q45.9062 74.2188 53.1562 68.4609 Q60.4062 62.7031 60.4062 52.3906 Q60.4062 46.4375 57.3281 41.2891 Q54.25 36.1406 44.3906 27.4844 L28.8125 13.8125 Z"
        /><glyph unicode="=" horiz-adv-x="83.78906" d="M10.5938 48.1875 L73.1875 48.1875 L73.1875 36.7188 L10.5938 36.7188 L10.5938 48.1875 ZM10.5938 25.9844 L73.1875 25.9844 L73.1875 14.4062 L10.5938 14.4062 L10.5938 25.9844 Z"
      /></font
    ></defs
    ><g style="fill:white; stroke:white;"
    ><rect x="0" y="0" width="460" style="clip-path:url(#clipPath1); stroke:none;" height="360"
    /></g
    ><g style="fill:white; text-rendering:optimizeSpeed; color-rendering:optimizeSpeed; image-rendering:optimizeSpeed; shape-rendering:crispEdges; stroke:white; color-interpolation:sRGB;"
    ><rect x="0" width="460" height="360" y="0" style="stroke:none;"
      /><path style="stroke:none;" d="M60 319 L416 319 L416 46 L60 46 Z"
    /></g
    ><g style="fill:rgb(38,38,38); text-rendering:geometricPrecision; image-rendering:optimizeQuality; color-rendering:optimizeQuality; stroke-linejoin:round; stroke:rgb(38,38,38); color-interpolation:linearRGB; stroke-width:0.6667;"
    ><line y2="319" style="fill:none;" x1="60" x2="416" y1="319"
      /><line y2="46" style="fill:none;" x1="60" x2="416" y1="46"
      /><line y2="315.44" style="fill:none;" x1="99.5556" x2="99.5556" y1="319"
      /><line y2="315.44" style="fill:none;" x1="178.6667" x2="178.6667" y1="319"
      /><line y2="315.44" style="fill:none;" x1="257.7778" x2="257.7778" y1="319"
      /><line y2="315.44" style="fill:none;" x1="336.8889" x2="336.8889" y1="319"
      /><line y2="315.44" style="fill:none;" x1="416" x2="416" y1="319"
      /><line y2="49.56" style="fill:none;" x1="99.5556" x2="99.5556" y1="46"
      /><line y2="49.56" style="fill:none;" x1="178.6667" x2="178.6667" y1="46"
      /><line y2="49.56" style="fill:none;" x1="257.7778" x2="257.7778" y1="46"
      /><line y2="49.56" style="fill:none;" x1="336.8889" x2="336.8889" y1="46"
      /><line y2="49.56" style="fill:none;" x1="416" x2="416" y1="46"
    /></g
    ><g transform="translate(99.5556,324.3333)" style="font-size:13.3333px; fill:rgb(38,38,38); text-rendering:geometricPrecision; image-rendering:optimizeQuality; color-rendering:optimizeQuality; font-family:'SansSerif'; stroke:rgb(38,38,38); color-interpolation:linearRGB;"
    ><text x="-4.5" xml:space="preserve" y="13" style="stroke:none;"
      >0</text
    ></g
    ><g transform="translate(178.6667,324.3333)" style="font-size:13.3333px; fill:rgb(38,38,38); text-rendering:geometricPrecision; image-rendering:optimizeQuality; color-rendering:optimizeQuality; font-family:'SansSerif'; stroke:rgb(38,38,38); color-interpolation:linearRGB;"
    ><text x="-4.5" xml:space="preserve" y="13" style="stroke:none;"
      >2</text
    ></g
    ><g transform="translate(257.7778,324.3333)" style="font-size:13.3333px; fill:rgb(38,38,38); text-rendering:geometricPrecision; image-rendering:optimizeQuality; color-rendering:optimizeQuality; font-family:'SansSerif'; stroke:rgb(38,38,38); color-interpolation:linearRGB;"
    ><text x="-4.5" xml:space="preserve" y="13" style="stroke:none;"
      >4</text
    ></g
    ><g transform="translate(336.8889,324.3333)" style="font-size:13.3333px; fill:rgb(38,38,38); text-rendering:geometricPrecision; image-rendering:optimizeQuality; color-rendering:optimizeQuality; font-family:'SansSerif'; stroke:rgb(38,38,38); color-interpolation:linearRGB;"
    ><text x="-4.5" xml:space="preserve" y="13" style="stroke:none;"
      >6</text
    ></g
    ><g transform="translate(416,324.3333)" style="font-size:13.3333px; fill:rgb(38,38,38); text-rendering:geometricPrecision; image-rendering:optimizeQuality; color-rendering:optimizeQuality; font-family:'SansSerif'; stroke:rgb(38,38,38); color-interpolation:linearRGB;"
    ><text x="-4.5" xml:space="preserve" y="13" style="stroke:none;"
      >8</text
    ></g
    ><g transform="translate(238.0002,341.6667)" style="font-size:14.6667px; fill:rgb(38,38,38); text-rendering:geometricPrecision; image-rendering:optimizeQuality; color-rendering:optimizeQuality; font-family:'SansSerif'; stroke:rgb(38,38,38); color-interpolation:linearRGB;"
    ><text x="-58.5" xml:space="preserve" y="14" style="stroke:none;"
      >Sample number</text
    ></g
    ><g style="fill:rgb(38,38,38); text-rendering:geometricPrecision; image-rendering:optimizeQuality; color-rendering:optimizeQuality; stroke-linejoin:round; stroke:rgb(38,38,38); color-interpolation:linearRGB; stroke-width:0.6667;"
    ><line y2="46" style="fill:none;" x1="60" x2="60" y1="319"
      /><line y2="46" style="fill:none;" x1="416" x2="416" y1="319"
      /><line y2="291.7" style="fill:none;" x1="60" x2="63.56" y1="291.7"
      /><line y2="255.3" style="fill:none;" x1="60" x2="63.56" y1="255.3"
      /><line y2="218.9" style="fill:none;" x1="60" x2="63.56" y1="218.9"
      /><line y2="182.5" style="fill:none;" x1="60" x2="63.56" y1="182.5"
      /><line y2="146.1" style="fill:none;" x1="60" x2="63.56" y1="146.1"
      /><line y2="109.7" style="fill:none;" x1="60" x2="63.56" y1="109.7"
      /><line y2="73.3" style="fill:none;" x1="60" x2="63.56" y1="73.3"
      /><line y2="291.7" style="fill:none;" x1="416" x2="412.44" y1="291.7"
      /><line y2="255.3" style="fill:none;" x1="416" x2="412.44" y1="255.3"
      /><line y2="218.9" style="fill:none;" x1="416" x2="412.44" y1="218.9"
      /><line y2="182.5" style="fill:none;" x1="416" x2="412.44" y1="182.5"
      /><line y2="146.1" style="fill:none;" x1="416" x2="412.44" y1="146.1"
      /><line y2="109.7" style="fill:none;" x1="416" x2="412.44" y1="109.7"
      /><line y2="73.3" style="fill:none;" x1="416" x2="412.44" y1="73.3"
    /></g
    ><g transform="translate(54.6667,291.7)" style="font-size:13.3333px; fill:rgb(38,38,38); text-rendering:geometricPrecision; image-rendering:optimizeQuality; color-rendering:optimizeQuality; font-family:'SansSerif'; stroke:rgb(38,38,38); color-interpolation:linearRGB;"
    ><text x="-14" xml:space="preserve" y="4.5" style="stroke:none;"
      >-6</text
    ></g
    ><g transform="translate(54.6667,255.3)" style="font-size:13.3333px; fill:rgb(38,38,38); text-rendering:geometricPrecision; image-rendering:optimizeQuality; color-rendering:optimizeQuality; font-family:'SansSerif'; stroke:rgb(38,38,38); color-interpolation:linearRGB;"
    ><text x="-14" xml:space="preserve" y="4.5" style="stroke:none;"
      >-4</text
    ></g
    ><g transform="translate(54.6667,218.9)" style="font-size:13.3333px; fill:rgb(38,38,38); text-rendering:geometricPrecision; image-rendering:optimizeQuality; color-rendering:optimizeQuality; font-family:'SansSerif'; stroke:rgb(38,38,38); color-interpolation:linearRGB;"
    ><text x="-14" xml:space="preserve" y="4.5" style="stroke:none;"
      >-2</text
    ></g
    ><g transform="translate(54.6667,182.5)" style="font-size:13.3333px; fill:rgb(38,38,38); text-rendering:geometricPrecision; image-rendering:optimizeQuality; color-rendering:optimizeQuality; font-family:'SansSerif'; stroke:rgb(38,38,38); color-interpolation:linearRGB;"
    ><text x="-9" xml:space="preserve" y="4.5" style="stroke:none;"
      >0</text
    ></g
    ><g transform="translate(54.6667,146.1)" style="font-size:13.3333px; fill:rgb(38,38,38); text-rendering:geometricPrecision; image-rendering:optimizeQuality; color-rendering:optimizeQuality; font-family:'SansSerif'; stroke:rgb(38,38,38); color-interpolation:linearRGB;"
    ><text x="-9" xml:space="preserve" y="4.5" style="stroke:none;"
      >2</text
    ></g
    ><g transform="translate(54.6667,109.7)" style="font-size:13.3333px; fill:rgb(38,38,38); text-rendering:geometricPrecision; image-rendering:optimizeQuality; color-rendering:optimizeQuality; font-family:'SansSerif'; stroke:rgb(38,38,38); color-interpolation:linearRGB;"
    ><text x="-9" xml:space="preserve" y="4.5" style="stroke:none;"
      >4</text
    ></g
    ><g transform="translate(54.6667,73.3)" style="font-size:13.3333px; fill:rgb(38,38,38); text-rendering:geometricPrecision; image-rendering:optimizeQuality; color-rendering:optimizeQuality; font-family:'SansSerif'; stroke:rgb(38,38,38); color-interpolation:linearRGB;"
    ><text x="-9" xml:space="preserve" y="4.5" style="stroke:none;"
      >6</text
    ></g
    ><g transform="translate(36.6667,182.4999) rotate(-90)" style="font-size:14.6667px; fill:rgb(38,38,38); text-rendering:geometricPrecision; image-rendering:optimizeQuality; color-rendering:optimizeQuality; font-family:'SansSerif'; stroke:rgb(38,38,38); color-interpolation:linearRGB;"
    ><text x="-38" xml:space="preserve" y="-4" style="stroke:none;"
      >Amplitude</text
    ></g
    ><g transform="translate(161,15)" style="font-size:14.6667px; text-rendering:geometricPrecision; image-rendering:optimizeQuality; color-rendering:optimizeQuality; font-family:'SansSerif'; color-interpolation:linearRGB; font-weight:bold;"
    ><text x="0" xml:space="preserve" y="0" style="stroke:none;"
      >Eye diagram at RX</text
    ></g
    ><g transform="translate(74,33)" style="font-size:14.6667px; text-rendering:geometricPrecision; image-rendering:optimizeQuality; color-rendering:optimizeQuality; font-family:'SansSerif'; color-interpolation:linearRGB; font-weight:bold;"
    ><text x="0" xml:space="preserve" y="0" style="stroke:none;"
      >(8-PAM, 50MHz RC filter, E</text
    ></g
    ><g transform="translate(294,40)" style="font-size:11.7333px; text-rendering:geometricPrecision; image-rendering:optimizeQuality; color-rendering:optimizeQuality; font-family:'SansSerif'; color-interpolation:linearRGB; font-weight:bold;"
    ><text x="0" xml:space="preserve" y="0" style="stroke:none;"
      >b</text
    ></g
    ><g transform="translate(303,33)" style="font-size:14.6667px; text-rendering:geometricPrecision; image-rendering:optimizeQuality; color-rendering:optimizeQuality; font-family:'SansSerif'; color-interpolation:linearRGB; font-weight:bold;"
    ><text x="0" xml:space="preserve" y="0" style="stroke:none;"
      >/N</text
    ></g
    ><g transform="translate(321,40)" style="font-size:11.7333px; text-rendering:geometricPrecision; image-rendering:optimizeQuality; color-rendering:optimizeQuality; font-family:'SansSerif'; color-interpolation:linearRGB; font-weight:bold;"
    ><text x="0" xml:space="preserve" y="0" style="stroke:none;"
      >0</text
    ></g
    ><g transform="translate(330,33)" style="font-size:14.6667px; text-rendering:geometricPrecision; image-rendering:optimizeQuality; color-rendering:optimizeQuality; font-family:'SansSerif'; color-interpolation:linearRGB; font-weight:bold;"
    ><text x="0" xml:space="preserve" y="0" style="stroke:none;"
      > = 20dB)</text
    ></g
    ><g style="stroke-linecap:butt; fill:blue; text-rendering:geometricPrecision; image-rendering:optimizeQuality; color-rendering:optimizeQuality; stroke-linejoin:round; stroke:blue; color-interpolation:linearRGB; stroke-width:0.6667;"
    ><path d="M99.5556 172.2173 L139.1111 184.5539 L178.6667 174.7227 L218.2222 171.8017 L257.7778 164.498 L297.3333 165.4664 L336.8889 168.4899 L376.4445 172.0769 L416 175.6944 L416.0424 175.694" style="fill:none; fill-rule:evenodd;"
      /><path d="M59.9576 205.2252 L60 205.2093 L99.5556 200.0719 L139.1111 180.0864 L178.6667 149.6492 L218.2222 124.3928 L257.7778 97.3102 L297.3333 96.3915 L336.8889 114.2779 L376.4445 136.5048 L416 157.4133 L416.0424 157.4245" style="fill:none; fill-rule:evenodd;"
      /><path d="M59.9576 235.1649 L60 235.1413 L99.5556 210.0904 L139.1111 190.6356 L178.6667 167.9494 L218.2222 149.8019 L257.7778 130.5127 L297.3333 127.3843 L336.8889 136.2494 L376.4445 146.8237 L416 161.1165 L416.0424 161.1451" style="fill:none; fill-rule:evenodd;"
      /><path d="M59.9576 147.8051 L60 147.8162 L99.5556 171.3828 L139.1111 187.6698 L178.6667 198.6108 L218.2222 193.8839 L257.7778 195.889 L297.3333 201.3863 L336.8889 200.9801 L376.4445 190.3369 L416 184.7912 L416.0424 184.77" style="fill:none; fill-rule:evenodd;"
      /><path d="M59.9576 231.3357 L60 231.3142 L99.5556 209.813 L139.1111 185.0824 L178.6667 157.7888 L218.2222 123.7556 L257.7778 95.2248 L297.3333 94.314 L336.8889 113.5159 L376.4445 135.8053 L416 162.7775 L416.0424 162.8107" style="fill:none; fill-rule:evenodd;"
      /><path d="M59.9576 170.521 L60 170.5213 L99.5556 173.0767 L139.1111 185.1181 L178.6667 210.4358 L218.2222 236.6141 L257.7778 270.9718 L297.3333 269.224 L336.8889 246.6487 L376.4445 227.6722 L416 200.2044 L416.0424 200.1892" style="fill:none; fill-rule:evenodd;"
      /><path d="M59.9576 168.7645 L60 168.7724 L99.5556 172.6847 L139.1111 189.3277 L178.6667 214.4168 L218.2222 238.3037 L257.7778 265.6288 L297.3333 279.1765 L336.8889 254.2679 L376.4445 237.3691 L416 201.6818 L416.0424 201.665" style="fill:none; fill-rule:evenodd;"
      /><path d="M59.9576 134.3214 L60 134.3408 L99.5556 158.9592 L139.1111 168.081 L178.6667 154.2726 L218.2222 148.6482 L257.7778 129.6753 L297.3333 129.687 L336.8889 147.4118 L376.4445 158.5991 L416 179.8653 L416.0424 179.8567" style="fill:none; fill-rule:evenodd;"
      /><path d="M59.9576 192.4372 L60 192.4257 L99.5556 186.0455 L139.1111 168.8244 L178.6667 146.5356 L218.2222 120.7701 L257.7778 101.174 L297.3333 90.0001 L336.8889 107.0155 L376.4445 128.4652 L416 157.1098 L416.0424 157.1364" style="fill:none; fill-rule:evenodd;"
      /><path d="M59.9576 116.0723 L60 116.107 L99.5556 155.1827 L139.1111 174.0803 L178.6667 160.9558 L218.2222 146.6699 L257.7778 125.0443 L297.3333 120.9388 L336.8889 134.5996 L376.4445 141.7995 L416 167.2235 L416.0424 167.2217" style="fill:none; fill-rule:evenodd;"
      /><path d="M59.9576 145.244 L60 145.2733 L99.5556 161.7239 L139.1111 189.4741 L178.6667 209.1244 L218.2222 235.8106 L257.7778 268.6103 L297.3333 282.6682 L336.8889 255.8497 L376.4445 232.548 L416 207.4326 L416.0424 207.4091" style="fill:none; fill-rule:evenodd;"
      /><path d="M59.9576 119.1701 L60 119.1977 L99.5556 152.593 L139.1111 181.3221 L178.6667 210.5328 L218.2222 240.3012 L257.7778 272.827 L297.3333 272.6892 L336.8889 244.1432 L376.4445 224.9326 L416 205.425 L416.0424 205.4141" style="fill:none; fill-rule:evenodd;"
      /><path d="M59.9576 135.5706 L60 135.5933 L99.5556 168.6457 L139.1111 176.6775 L178.6667 177.8942 L218.2222 175.0826 L257.7778 169.9655 L297.3333 161.3892 L336.8889 172.2642 L376.4445 173.4272 L416 180.8122 L416.0424 180.8236" style="fill:none; fill-rule:evenodd;"
      /><path d="M59.9576 212.1859 L60 212.1694 L99.5556 198.1725 L139.1111 163.7977 L178.6667 134.1733 L218.2222 103.8369 L257.7778 65.4011 L297.3333 58.3884 L336.8889 87.736 L376.4445 108.1303 L416 149.3767 L416.0424 149.4056" style="fill:none; fill-rule:evenodd;"
      /><path d="M59.9576 148.8428 L60 148.858 L99.5556 163.164 L139.1111 190.965 L178.6667 230.1896 L218.2222 268.2692 L257.7778 305.8746 L297.3333 314.5897 L336.8889 287.8096 L376.4445 254.8958 L416 212.4512 L416.0424 212.4167" style="fill:none; fill-rule:evenodd;"
      /><path d="M59.9576 247.1994 L60 247.1657 L99.5556 207.7687 L139.1111 193.6063 L178.6667 198.3724 L218.2222 215.4033 L257.7778 236.1465 L297.3333 237.2138 L336.8889 234.2524 L376.4445 217.65 L416 190.7397 L416.0424 190.7253" style="fill:none; fill-rule:evenodd;"
      /><path d="M59.9576 130.782 L60 130.8059 L99.5556 157.5052 L139.1111 187.8588 L178.6667 218.326 L218.2222 253.7359 L257.7778 301.598 L297.3333 312.426 L336.8889 284.4675 L376.4445 252.8265 L416 209.0212 L416.0424 209.013" style="fill:none; fill-rule:evenodd;"
      /><path d="M59.9576 233.5695 L60 233.5458 L99.5556 206.3 L139.1111 175.8372 L178.6667 138.6119 L218.2222 103.1529 L257.7778 64.2892 L297.3333 56.7648 L336.8889 80.1431 L376.4445 119.0491 L416 158.3231 L416.0424 158.3374" style="fill:none; fill-rule:evenodd;"
      /><path d="M59.9576 195.3159 L60 195.3168 L99.5556 189.4404 L139.1111 195.2513 L178.6667 230.6921 L218.2222 269.2032 L257.7778 303.927 L297.3333 305.4157 L336.8889 280.8219 L376.4445 250.4633 L416 206.8675 L416.0424 206.8574" style="fill:none; fill-rule:evenodd;"
      /><path d="M59.9576 117.9901 L60 118.0282 L99.5556 156.5329 L139.1111 177.9693 L178.6667 182.9567 L218.2222 192.2913 L257.7778 198.5123 L297.3333 200.5772 L336.8889 197.8298 L376.4445 189.7334 L416 180.0658 L416.0424 180.0761" style="fill:none; fill-rule:evenodd;"
      /><path d="M59.9576 173.4212 L60 173.4335 L99.5556 188.5149 L139.1111 182.4319 L178.6667 162.8147 L218.2222 131.9327 L257.7778 103.1726 L297.3333 99.1098 L336.8889 110.4611 L376.4445 127.3369 L416 165.1309 L416.0424 165.1469" style="fill:none; fill-rule:evenodd;"
      /><path d="M59.9576 207.5623 L60 207.5479 L99.5556 194.5737 L139.1111 194.5505 L178.6667 203.2768 L218.2222 220.4498 L257.7778 231.2895 L297.3333 232.7931 L336.8889 218.5228 L376.4445 209.1194 L416 192.8549 L416.0424 192.8642" style="fill:none; fill-rule:evenodd;"
      /><path d="M59.9576 212.5108 L60 212.5049 L99.5556 190.8164 L139.1111 176.9769 L178.6667 158.0344 L218.2222 144.0448 L257.7778 127.7861 L297.3333 125.6202 L336.8889 135.5629 L376.4445 155.3119 L416 165.5016 L416.0424 165.5222" style="fill:none; fill-rule:evenodd;"
      /><path d="M59.9576 209.8475 L60 209.8242 L99.5556 192.5168 L139.1111 177.9993 L178.6667 160.4675 L218.2222 146.7561 L257.7778 133.606 L297.3333 128.5982 L336.8889 143.4758 L376.4445 154.5338 L416 170.9976 L416.0424 171.017" style="fill:none; fill-rule:evenodd;"
      /><path d="M59.9576 191.798 L60 191.7953 L99.5556 190.2699 L139.1111 200.5325 L178.6667 233.4336 L218.2222 259.2844 L257.7778 303.8087 L297.3333 313.5072 L336.8889 284.589 L376.4445 249.2972 L416 208.6773 L416.0424 208.6662" style="fill:none; fill-rule:evenodd;"
      /><path d="M59.9576 237.6348 L60 237.616 L99.5556 210.1544 L139.1111 177.1268 L178.6667 142.2513 L218.2222 98.0162 L257.7778 58.3899 L297.3333 55.1528 L336.8889 92.3988 L376.4445 122.1194 L416 158.555 L416.0424 158.5852" style="fill:none; fill-rule:evenodd;"
      /><path d="M59.9576 212.6777 L60 212.6661 L99.5556 191.5913 L139.1111 199.7393 L178.6667 234.0448 L218.2222 266.4784 L257.7778 304.804 L297.3333 308.7423 L336.8889 276.4002 L376.4445 255.7261 L416 214.3082 L416.0424 214.2967" style="fill:none; fill-rule:evenodd;"
      /><path d="M59.9576 231.9471 L60 231.9265 L99.5556 205.9491 L139.1111 194.6932 L178.6667 202.9665 L218.2222 213.372 L257.7778 234.4033 L297.3333 238.5366 L336.8889 227.8005 L376.4445 214.0639 L416 194.4373 L416.0424 194.429" style="fill:none; fill-rule:evenodd;"
      /><path d="M59.9576 210.9872 L60 210.9717 L99.5556 192.2793 L139.1111 170.5462 L178.6667 133.7256 L218.2222 112.5645 L257.7778 71.283 L297.3333 56.5496 L336.8889 79.2555 L376.4445 115.9696 L416 157.3095 L416.0424 157.3226" style="fill:none; fill-rule:evenodd;"
      /><path d="M59.9576 195.3755 L60 195.3719 L99.5556 190.2493 L139.1111 172.921 L178.6667 159.5715 L218.2222 148.3466 L257.7778 130.7118 L297.3333 120.0667 L336.8889 134.675 L376.4445 152.595 L416 166.9483 L416.0424 166.9789" style="fill:none; fill-rule:evenodd;"
      /><path d="M59.9576 143.1926 L60 143.2228 L99.5556 174.9972 L139.1111 188.7946 L178.6667 187.3397 L218.2222 191.742 L257.7778 191.627 L297.3333 194.5927 L336.8889 188.7004 L376.4445 186.019 L416 182.0147 L416.0424 182.003" style="fill:none; fill-rule:evenodd;"
      /><path d="M59.9576 129.9525 L60 129.9717 L99.5556 161.6008 L139.1111 184.6344 L178.6667 218.4041 L218.2222 240.5129 L257.7778 268.383 L297.3333 267.3869 L336.8889 249.7836 L376.4445 232.2913 L416 199.2493 L416.0424 199.2278" style="fill:none; fill-rule:evenodd;"
      /><path d="M59.9576 155.428 L60 155.4481 L99.5556 173.1063 L139.1111 174.0675 L178.6667 170.9265 L218.2222 172.9694 L257.7778 171.817 L297.3333 168.2951 L336.8889 168.617 L376.4445 175.4425 L416 181.7133 L416.0424 181.7155" style="fill:none; fill-rule:evenodd;"
      /><path d="M59.9576 226.5553 L60 226.5254 L99.5556 204.4626 L139.1111 193.2756 L178.6667 185.2368 L218.2222 180.9428 L257.7778 165.9975 L297.3333 166.2876 L336.8889 175.4916 L376.4445 182.4186 L416 183.28 L416.0424 183.2807" style="fill:none; fill-rule:evenodd;"
      /><path d="M59.9576 187.7132 L60 187.7111 L99.5556 182.6333 L139.1111 172.5795 L178.6667 163.5276 L218.2222 148.729 L257.7778 124.7462 L297.3333 127.0498 L336.8889 135.016 L376.4445 154.8757 L416 175.2729 L416.0424 175.2875" style="fill:none; fill-rule:evenodd;"
      /><path d="M59.9576 151.4872 L60 151.4964 L99.5556 166.3637 L139.1111 187.8237 L178.6667 209.3567 L218.2222 239.5915 L257.7778 272.2393 L297.3333 271.6461 L336.8889 251.0977 L376.4445 231.2199 L416 202.4872 L416.0424 202.487" style="fill:none; fill-rule:evenodd;"
      /><path d="M59.9576 214.1971 L60 214.1858 L99.5556 201.5453 L139.1111 198.0233 L178.6667 220.9154 L218.2222 241.4886 L257.7778 265.1133 L297.3333 263.4296 L336.8889 244.9159 L376.4445 223.6456 L416 198.4117 L416.0424 198.4075" style="fill:none; fill-rule:evenodd;"
      /><path d="M59.9576 247.8344 L60 247.8 L99.5556 213.8916 L139.1111 174.1447 L178.6667 132.0658 L218.2222 99.7514 L257.7778 56.4305 L297.3333 59.4807 L336.8889 87.8 L376.4445 119.8261 L416 159.606 L416.0424 159.6442" style="fill:none; fill-rule:evenodd;"
      /><path d="M59.9576 211.7848 L60 211.7723 L99.5556 203.8916 L139.1111 185.5715 L178.6667 187.7973 L218.2222 186.7792 L257.7778 196.6123 L297.3333 200.9405 L336.8889 197.7332 L376.4445 189.4237 L416 184.5302 L416.0424 184.5313" style="fill:none; fill-rule:evenodd;"
      /><path d="M59.9576 180.6329 L60 180.6291 L99.5556 178.4362 L139.1111 172.356 L178.6667 156.1486 L218.2222 146.5789 L257.7778 125.7183 L297.3333 120.6937 L336.8889 137.5131 L376.4445 157.9235 L416 173.1161 L416.0424 173.1227" style="fill:none; fill-rule:evenodd;"
      /><path d="M59.9576 193.9728 L60 193.9623 L99.5556 183.9771 L139.1111 188.194 L178.6667 203.4709 L218.2222 215.8645 L257.7778 235.7273 L297.3333 238.5617 L336.8889 228.5552 L376.4445 216.4318 L416 199.3301 L416.0424 199.306" style="fill:none; fill-rule:evenodd;"
      /><path d="M59.9576 195.031 L60 195.0296 L99.5556 191.0512 L139.1111 183.2304 L178.6667 170.8759 L218.2222 173.2468 L257.7778 163.0603 L297.3333 158.4165 L336.8889 162.2627 L376.4445 162.1186 L416 174.0358 L416.0424 174.0611" style="fill:none; fill-rule:evenodd;"
      /><path d="M59.9576 196.0616 L60 196.0644 L99.5556 184.971 L139.1111 187.2122 L178.6667 194.621 L218.2222 195.526 L257.7778 202.9362 L297.3333 197.3387 L336.8889 198.4782 L376.4445 190.3858 L416 178.8764 L416.0424 178.8819" style="fill:none; fill-rule:evenodd;"
      /><path d="M59.9576 157.5661 L60 157.5788 L99.5556 165.7521 L139.1111 177.5853 L178.6667 187.3148 L218.2222 187.9203 L257.7778 199.5096 L297.3333 199.5602 L336.8889 195.2794 L376.4445 191.9309 L416 182.2885 L416.0424 182.2817" style="fill:none; fill-rule:evenodd;"
      /><path d="M59.9576 195.612 L60 195.6085 L99.5556 194.0119 L139.1111 199.5216 L178.6667 228.6277 L218.2222 262.9421 L257.7778 304.2093 L297.3333 316.6942 L336.8889 279.7821 L376.4445 244.1562 L416 206.3335 L416.0424 206.3327" style="fill:none; fill-rule:evenodd;"
      /><path d="M59.9576 130.5888 L60 130.6039 L99.5556 156.7566 L139.1111 170.7376 L178.6667 168.0227 L218.2222 168.2536 L257.7778 159.1264 L297.3333 160.7384 L336.8889 166.6957 L376.4445 173.2821 L416 176.9855 L416.0424 176.9994" style="fill:none; fill-rule:evenodd;"
      /><path d="M59.9576 137.4413 L60 137.471 L99.5556 166.4839 L139.1111 170.1929 L178.6667 162.0332 L218.2222 148.645 L257.7778 132.1821 L297.3333 128.5185 L336.8889 136.662 L376.4445 156.2238 L416 171.5498 L416.0424 171.5709" style="fill:none; fill-rule:evenodd;"
      /><path d="M59.9576 112.2751 L60 112.3113 L99.5556 146.7338 L139.1111 180.4149 L178.6667 222.16 L218.2222 254.8559 L257.7778 296.812 L297.3333 311.3274 L336.8889 288.4234 L376.4445 248.9364 L416 211.0876 L416.0424 211.0708" style="fill:none; fill-rule:evenodd;"
      /><path d="M59.9576 149.5234 L60 149.5317 L99.5556 164.5271 L139.1111 178.9083 L178.6667 178.64 L218.2222 176.8454 L257.7778 165.0968 L297.3333 165.1097 L336.8889 169.006 L376.4445 174.6281 L416 182.5389 L416.0424 182.5235" style="fill:none; fill-rule:evenodd;"
      /><path d="M59.9576 109.9211 L60 109.9571 L99.5556 145.4752 L139.1111 173.0671 L178.6667 196.3752 L218.2222 215.6926 L257.7778 236.1768 L297.3333 247.2289 L336.8889 227.9066 L376.4445 212.4706 L416 189.9967 L416.0424 189.9973" style="fill:none; fill-rule:evenodd;"
      /><path d="M59.9576 202.0711 L60 202.0674 L99.5556 193.3813 L139.1111 173.4186 L178.6667 133.8266 L218.2222 101.5428 L257.7778 63.0244 L297.3333 58.4067 L336.8889 84.4194 L376.4445 118.3223 L416 156.4143 L416.0424 156.4439" style="fill:none; fill-rule:evenodd;"
      /><path d="M59.9576 193.4536 L60 193.4581 L99.5556 182.1782 L139.1111 193.0529 L178.6667 212.1536 L218.2222 239.6511 L257.7778 275.4874 L297.3333 273.6711 L336.8889 255.2991 L376.4445 226.2417 L416 197.3533 L416.0424 197.3579" style="fill:none; fill-rule:evenodd;"
      /><path d="M59.9576 134.5994 L60 134.6176 L99.5556 164.0544 L139.1111 180.4638 L178.6667 191.3218 L218.2222 199.9664 L257.7778 205.1926 L297.3333 205.8966 L336.8889 205.6626 L376.4445 200.8582 L416 189.1879 L416.0424 189.1622" style="fill:none; fill-rule:evenodd;"
      /><path d="M59.9576 209.9745 L60 209.9587 L99.5556 198.964 L139.1111 176.2509 L178.6667 152.1566 L218.2222 124.0174 L257.7778 96.5937 L297.3333 85.59 L336.8889 114.4129 L376.4445 138.7815 L416 161.3698 L416.0424 161.3844" style="fill:none; fill-rule:evenodd;"
      /><path d="M59.9576 131.6215 L60 131.6444 L99.5556 154.9997 L139.1111 184.738 L178.6667 212.4995 L218.2222 244.377 L257.7778 270.3969 L297.3333 272.5023 L336.8889 252.9932 L376.4445 232.2007 L416 205.0062 L416.0424 205.0014" style="fill:none; fill-rule:evenodd;"
      /><path d="M59.9576 133.2719 L60 133.2954 L99.5556 160.889 L139.1111 186.0487 L178.6667 203.0457 L218.2222 221.758 L257.7778 249.0649 L297.3333 239.975 L336.8889 221.8476 L376.4445 211.0634 L416 197.1127 L416.0424 197.1165" style="fill:none; fill-rule:evenodd;"
      /><path d="M59.9576 172.8806 L60 172.896 L99.5556 175.1148 L139.1111 180.7355 L178.6667 213.0882 L218.2222 237.2359 L257.7778 267.5779 L297.3333 272.7323 L336.8889 247.5078 L376.4445 232.6051 L416 210.9467 L416.0424 210.9162" style="fill:none; fill-rule:evenodd;"
      /><path d="M59.9576 151.2467 L60 151.2615 L99.5556 169.931 L139.1111 179.8427 L178.6667 162.8248 L218.2222 150.9742 L257.7778 132.0486 L297.3333 126.8931 L336.8889 138.0118 L376.4445 157.2509 L416 180.0073 L416.0424 180.0234" style="fill:none; fill-rule:evenodd;"
      /><path d="M59.9576 254.4649 L60 254.4333 L99.5556 210.1417 L139.1111 190.0342 L178.6667 196.9261 L218.2222 209.1789 L257.7778 234.6946 L297.3333 237.8217 L336.8889 224.0363 L376.4445 215.1873 L416 195.7942 L416.0424 195.7778" style="fill:none; fill-rule:evenodd;"
      /><path d="M59.9576 231.299 L60 231.2773 L99.5556 206.1896 L139.1111 187.1673 L178.6667 197.5309 L218.2222 215.7247 L257.7778 234.2705 L297.3333 232.4402 L336.8889 224.8241 L376.4445 206.1677 L416 195.1622 L416.0424 195.1421" style="fill:none; fill-rule:evenodd;"
      /><path d="M59.9576 148.3938 L60 148.4059 L99.5556 172.1697 L139.1111 190.3246 L178.6667 214.4296 L218.2222 244.8604 L257.7778 267.6521 L297.3333 268.8823 L336.8889 248.9316 L376.4445 222.9995 L416 193.5446 L416.0424 193.5542" style="fill:none; fill-rule:evenodd;"
      /><path d="M59.9576 234.5461 L60 234.5275 L99.5556 196.9479 L139.1111 181.6566 L178.6667 189.5075 L218.2222 193.3746 L257.7778 202.3753 L297.3333 204.549 L336.8889 192.8484 L376.4445 186.0929 L416 184.4728 L416.0424 184.4663" style="fill:none; fill-rule:evenodd;"
      /><path d="M59.9576 262.1136 L60 262.0901 L99.5556 211.8034 L139.1111 200.7737 L178.6667 213.0293 L218.2222 237.8706 L257.7778 266.1473 L297.3333 266.3711 L336.8889 249.7114 L376.4445 230.6877 L416 205.906 L416.0424 205.8915" style="fill:none; fill-rule:evenodd;"
      /><path d="M59.9576 130.6929 L60 130.7157 L99.5556 157.9852 L139.1111 167.1822 L178.6667 129.6115 L218.2222 98.9567 L257.7778 57.9338 L297.3333 48.0592 L336.8889 74.452 L376.4445 108.5797 L416 148.8462 L416.0424 148.8666" style="fill:none; fill-rule:evenodd;"
      /><path d="M59.9576 130.2009 L60 130.2127 L99.5556 161.7964 L139.1111 167.3431 L178.6667 146.2522 L218.2222 123.2933 L257.7778 96.4645 L297.3333 92.0792 L336.8889 112.0552 L376.4445 132.8344 L416 163.7732 L416.0424 163.7775" style="fill:none; fill-rule:evenodd;"
      /><path d="M59.9576 115.5216 L60 115.5573 L99.5556 147.8178 L139.1111 178.9956 L178.6667 206.0063 L218.2222 217.1585 L257.7778 227.6436 L297.3333 239.1294 L336.8889 225.6736 L376.4445 214.7902 L416 203.0321 L416.0424 203.0095" style="fill:none; fill-rule:evenodd;"
      /><path d="M59.9576 245.9055 L60 245.8717 L99.5556 204.7009 L139.1111 172.1023 L178.6667 142.7735 L218.2222 99.9259 L257.7778 53.83 L297.3333 49.0679 L336.8889 80.908 L376.4445 122.2735 L416 168.3472 L416.0424 168.3693" style="fill:none; fill-rule:evenodd;"
      /><path d="M59.9576 146.052 L60 146.0669 L99.5556 162.4632 L139.1111 167.743 L178.6667 157.3147 L218.2222 142.0784 L257.7778 125.7012 L297.3333 128.688 L336.8889 147.4095 L376.4445 162.4579 L416 171.7022 L416.0424 171.71" style="fill:none; fill-rule:evenodd;"
      /><path d="M59.9576 153.1597 L60 153.1807 L99.5556 172.8591 L139.1111 174.7669 L178.6667 148.7728 L218.2222 128.1671 L257.7778 100.8447 L297.3333 85.9898 L336.8889 116.2687 L376.4445 139.9232 L416 158.6134 L416.0424 158.6493" style="fill:none; fill-rule:evenodd;"
      /><path d="M59.9576 151.4765 L60 151.4902 L99.5556 167.3286 L139.1111 171.5219 L178.6667 147.6695 L218.2222 126.0224 L257.7778 95.194 L297.3333 93.4677 L336.8889 110.4653 L376.4445 130.538 L416 159.6182 L416.0424 159.6432" style="fill:none; fill-rule:evenodd;"
      /><path d="M59.9576 150.6024 L60 150.6169 L99.5556 169.0976 L139.1111 166.7073 L178.6667 159.0376 L218.2222 147.5291 L257.7778 131.0261 L297.3333 121.8645 L336.8889 136.9503 L376.4445 150.6788 L416 171.4984 L416.0424 171.4944" style="fill:none; fill-rule:evenodd;"
      /><path d="M59.9576 129.5746 L60 129.5942 L99.5556 166.7774 L139.1111 189.2124 L178.6667 200.4145 L218.2222 212.2934 L257.7778 231.139 L297.3333 239.3557 L336.8889 225.6224 L376.4445 206.9968 L416 191.8134 L416.0424 191.8" style="fill:none; fill-rule:evenodd;"
      /><path d="M59.9576 247.4739 L60 247.4403 L99.5556 207.8289 L139.1111 195.794 L178.6667 226.2007 L218.2222 257.0862 L257.7778 298.3268 L297.3333 312.0566 L336.8889 285.3586 L376.4445 249.5443 L416 216.5905 L416.0424 216.5801" style="fill:none; fill-rule:evenodd;"
      /><path d="M59.9576 212.0457 L60 212.0255 L99.5556 189.8198 L139.1111 187.8576 L178.6667 186.5363 L218.2222 202.0903 L257.7778 204.2144 L297.3333 207.9855 L336.8889 204.6428 L376.4445 196.0764 L416 189.9046 L416.0424 189.911" style="fill:none; fill-rule:evenodd;"
      /><path d="M59.9576 116.3087 L60 116.3457 L99.5556 153.4037 L139.1111 174.4741 L178.6667 178.2131 L218.2222 171.5083 L257.7778 158.6298 L297.3333 159.4653 L336.8889 168.5364 L376.4445 173.7626 L416 189.7278 L416.0424 189.7279" style="fill:none; fill-rule:evenodd;"
      /><path d="M59.9576 248.9992 L60 248.9594 L99.5556 208.6229 L139.1111 183.3633 L178.6667 173.0343 L218.2222 164.1219 L257.7778 165.1696 L297.3333 167.7005 L336.8889 168.1212 L376.4445 174.2286 L416 180.6874 L416.0424 180.684" style="fill:none; fill-rule:evenodd;"
      /><path d="M59.9576 204.1158 L60 204.0974 L99.5556 186.8557 L139.1111 179.4373 L178.6667 166.7095 L218.2222 157.1459 L257.7778 136.9213 L297.3333 136.2391 L336.8889 145.0831 L376.4445 152.8389 L416 173.2876 L416.0424 173.2736" style="fill:none; fill-rule:evenodd;"
      /><path d="M59.9576 227.7872 L60 227.7654 L99.5556 200.7269 L139.1111 200.7583 L178.6667 229.6999 L218.2222 255.1641 L257.7778 297.8311 L297.3333 309.1043 L336.8889 282.8838 L376.4445 246.0459 L416 208.2344 L416.0424 208.2202" style="fill:none; fill-rule:evenodd;"
      /><path d="M59.9576 150.3521 L60 150.3671 L99.5556 167.4171 L139.1111 189.9472 L178.6667 226.8331 L218.2222 262.7282 L257.7778 309.7376 L297.3333 306.7408 L336.8889 281.0808 L376.4445 249.747 L416 216.9867 L416.0424 216.9572" style="fill:none; fill-rule:evenodd;"
      /><path d="M59.9576 123.5754 L60 123.593 L99.5556 156.0701 L139.1111 174.1439 L178.6667 162.824 L218.2222 148.7418 L257.7778 130.1283 L297.3333 125.872 L336.8889 139.8757 L376.4445 158.302 L416 177.9623 L416.0424 177.9866" style="fill:none; fill-rule:evenodd;"
      /><path d="M59.9576 170.4928 L60 170.4979 L99.5556 168.8387 L139.1111 189.449 L178.6667 229.2765 L218.2222 265.7682 L257.7778 309.4493 L297.3333 310.3886 L336.8889 287.7476 L376.4445 251.4653 L416 212.029 L416.0424 211.995" style="fill:none; fill-rule:evenodd;"
      /><path d="M59.9576 218.8101 L60 218.8084 L99.5556 198.5944 L139.1111 187.901 L178.6667 188.9824 L218.2222 191.7639 L257.7778 199.4512 L297.3333 205.2442 L336.8889 201.217 L376.4445 196.5213 L416 184.5443 L416.0424 184.5317" style="fill:none; fill-rule:evenodd;"
      /><path d="M59.9576 195.745 L60 195.7471 L99.5556 189.7538 L139.1111 202.7058 L178.6667 210.3365 L218.2222 229.8909 L257.7778 265.0945 L297.3333 269.7621 L336.8889 254.1914 L376.4445 228.3016 L416 197.4065 L416.0424 197.412" style="fill:none; fill-rule:evenodd;"
      /><path d="M59.9576 231.9216 L60 231.9014 L99.5556 201.8557 L139.1111 202.3997 L178.6667 225.8926 L218.2222 259.5857 L257.7778 312.4457 L297.3333 314.0746 L336.8889 280.8766 L376.4445 251.327 L416 206.5807 L416.0424 206.5606" style="fill:none; fill-rule:evenodd;"
      /><path d="M59.9576 245.0851 L60 245.0515 L99.5556 204.3782 L139.1111 196.675 L178.6667 223.9902 L218.2222 244.5529 L257.7778 270.3002 L297.3333 274.8259 L336.8889 250.7257 L376.4445 230.2493 L416 197.7932 L416.0424 197.7673" style="fill:none; fill-rule:evenodd;"
      /><path d="M59.9576 212.4633 L60 212.4545 L99.5556 194.086 L139.1111 175.3576 L178.6667 150.0825 L218.2222 123.763 L257.7778 103.5553 L297.3333 102.3067 L336.8889 117.4397 L376.4445 131.5081 L416 154.1699 L416.0424 154.1988" style="fill:none; fill-rule:evenodd;"
      /><path d="M59.9576 233.6223 L60 233.6043 L99.5556 211.9813 L139.1111 196.4784 L178.6667 171.053 L218.2222 158.1664 L257.7778 132.1673 L297.3333 121.9054 L336.8889 135.0155 L376.4445 158.6738 L416 168.7924 L416.0424 168.7989" style="fill:none; fill-rule:evenodd;"
      /><path d="M59.9576 176.6581 L60 176.6685 L99.5556 181.0627 L139.1111 187.1426 L178.6667 186.8624 L218.2222 190.5907 L257.7778 201.2232 L297.3333 194.2232 L336.8889 203.5169 L376.4445 195.4184 L416 184.0788 L416.0424 184.0777" style="fill:none; fill-rule:evenodd;"
      /><path d="M59.9576 191.8651 L60 191.8549 L99.5556 186.5307 L139.1111 175.9607 L178.6667 163.2367 L218.2222 148.1286 L257.7778 131.8898 L297.3333 125.0637 L336.8889 137.6456 L376.4445 153.9747 L416 165.438 L416.0424 165.4555" style="fill:none; fill-rule:evenodd;"
      /><path d="M59.9576 155.1206 L60 155.1364 L99.5556 170.3388 L139.1111 187.1294 L178.6667 187.2354 L218.2222 186.8447 L257.7778 196.9571 L297.3333 199.7389 L336.8889 203.4839 L376.4445 197.5017 L416 186.9945 L416.0424 186.993" style="fill:none; fill-rule:evenodd;"
      /><path d="M59.9576 159.5421 L60 159.5665 L99.5556 176.7595 L139.1111 169.7918 L178.6667 146.9735 L218.2222 127.916 L257.7778 97.9082 L297.3333 89.0525 L336.8889 113.2125 L376.4445 133.1322 L416 159.6642 L416.0424 159.6824" style="fill:none; fill-rule:evenodd;"
      /><path d="M59.9576 234.8239 L60 234.8038 L99.5556 205.5981 L139.1111 185.9899 L178.6667 185.3433 L218.2222 174.1503 L257.7778 162.4658 L297.3333 156.6975 L336.8889 168.2981 L376.4445 170.0193 L416 181.5417 L416.0424 181.5504" style="fill:none; fill-rule:evenodd;"
      /><path d="M59.9576 218.3214 L60 218.2871 L99.5556 192.3105 L139.1111 184.4083 L178.6667 188.0522 L218.2222 190.7329 L257.7778 205.9924 L297.3333 200.5228 L336.8889 200.5792 L376.4445 184.9341 L416 186.1683 L416.0424 186.1697" style="fill:none; fill-rule:evenodd;"
      /><path d="M59.9576 231.7927 L60 231.7703 L99.5556 205.9415 L139.1111 207.3091 L178.6667 231.7702 L218.2222 256.7206 L257.7778 301.2573 L297.3333 296.3415 L336.8889 274.2563 L376.4445 241.6681 L416 206.3183 L416.0424 206.2988" style="fill:none; fill-rule:evenodd;"
      /><path d="M59.9576 171.4873 L60 171.4909 L99.5556 183.3454 L139.1111 179.0797 L178.6667 177.3895 L218.2222 168.5203 L257.7778 169.263 L297.3333 165.4199 L336.8889 173.6942 L376.4445 173.0052 L416 181.2627 L416.0424 181.2549" style="fill:none; fill-rule:evenodd;"
      /><path d="M59.9576 233.3935 L60 233.3692 L99.5556 201.2108 L139.1111 190.4695 L178.6667 184.5448 L218.2222 188.9299 L257.7778 205.3156 L297.3333 204.9379 L336.8889 196.2638 L376.4445 197.5619 L416 186.1063 L416.0424 186.1127" style="fill:none; fill-rule:evenodd;"
      /><path d="M59.9576 228.238 L60 228.2122 L99.5556 196.3838 L139.1111 189.0138 L178.6667 220.9763 L218.2222 235.4554 L257.7778 269.9159 L297.3333 274.0266 L336.8889 257.792 L376.4445 229.5886 L416 203.5018 L416.0424 203.4709" style="fill:none; fill-rule:evenodd;"
      /><path d="M59.9576 258.0752 L60 258.0501 L99.5556 216.6076 L139.1111 190.3519 L178.6667 168.9594 L218.2222 139.2758 L257.7778 121.323 L297.3333 127.09 L336.8889 139.2382 L376.4445 154.6354 L416 171.8237 L416.0424 171.8344" style="fill:none; fill-rule:evenodd;"
      /><path d="M59.9576 253.8979 L60 253.8696 L99.5556 213.844 L139.1111 202.8754 L178.6667 230.695 L218.2222 264.5646 L257.7778 300.5255 L297.3333 307.1443 L336.8889 273.2627 L376.4445 248.1028 L416 204.6618 L416.0424 204.655" style="fill:none; fill-rule:evenodd;"
      /><path d="M59.9576 150.7964 L60 150.8057 L99.5556 168.3174 L139.1111 189.0802 L178.6667 225.4314 L218.2222 267.0106 L257.7778 310.1603 L297.3333 309.3412 L336.8889 274.362 L376.4445 251.468 L416 216.7359 L416.0424 216.7071" style="fill:none; fill-rule:evenodd;"
      /><path d="M59.9576 224.1861 L60 224.1538 L99.5556 195.9951 L139.1111 172.287 L178.6667 135.4434 L218.2222 104.4203 L257.7778 64.4071 L297.3333 57.3657 L336.8889 88.5254 L376.4445 110.2646 L416 144.3704 L416.0424 144.4053" style="fill:none; fill-rule:evenodd;"
      /><path d="M59.9576 202.7669 L60 202.7684 L99.5556 197.0014 L139.1111 184.4 L178.6667 141.4637 L218.2222 98.2649 L257.7778 59.632 L297.3333 60.2695 L336.8889 89.369 L376.4445 116.9863 L416 154.7813 L416.0424 154.8021" style="fill:none; fill-rule:evenodd;"
      /><path d="M59.9576 187.6288 L60 187.6176 L99.5556 180.4324 L139.1111 180.9571 L178.6667 158.641 L218.2222 147.3361 L257.7778 132.2934 L297.3333 135.4594 L336.8889 150.0289 L376.4445 157.1171 L416 171.6802 L416.0424 171.7001" style="fill:none; fill-rule:evenodd;"
      /><path d="M59.9576 234.7184 L60 234.6986 L99.5556 206.3141 L139.1111 177.7402 L178.6667 136.4764 L218.2222 102.2688 L257.7778 61.6584 L297.3333 51.0093 L336.8889 82.8475 L376.4445 115.1862 L416 150.6698 L416.0424 150.7098" style="fill:none; fill-rule:evenodd;"
      /><path d="M59.9576 216.8008 L60 216.7852 L99.5556 200.0551 L139.1111 169.06 L178.6667 136.7738 L218.2222 99.7034 L257.7778 63.5896 L297.3333 50.9048 L336.8889 74.5293 L376.4445 104.7615 L416 143.6597 L416.0424 143.6764" style="fill:none; fill-rule:evenodd;"
      /><path d="M59.9576 122.5073 L60 122.5251 L99.5556 157.7076 L139.1111 188.1962 L178.6667 229.8792 L218.2222 262.2368 L257.7778 305.3035 L297.3333 311.1173 L336.8889 270.7632 L376.4445 242.1303 L416 211.3293 L416.0424 211.2934" style="fill:none; fill-rule:evenodd;"
      /><path d="M59.9576 150.8004 L60 150.8174 L99.5556 174.5145 L139.1111 175.3674 L178.6667 145.6944 L218.2222 121.4073 L257.7778 91.1165 L297.3333 82.0355 L336.8889 103.755 L376.4445 129.4651 L416 156.5638 L416.0424 156.5819" style="fill:none; fill-rule:evenodd;"
      /><path d="M59.9576 169.3357 L60 169.3438 L99.5556 172.422 L139.1111 170.0864 L178.6667 141.234 L218.2222 121.2031 L257.7778 93.6424 L297.3333 95.9976 L336.8889 111.1288 L376.4445 138.7421 L416 163.3391 L416.0424 163.3677" style="fill:none; fill-rule:evenodd;"
      /><path d="M59.9576 234.5155 L60 234.4994 L99.5556 202.4545 L139.1111 189.685 L178.6667 180.4151 L218.2222 175.6416 L257.7778 162.2734 L297.3333 160.9048 L336.8889 170.8842 L376.4445 169.8023 L416 178.6155 L416.0424 178.6236" style="fill:none; fill-rule:evenodd;"
      /><path d="M59.9576 229.1307 L60 229.1022 L99.5556 203.9181 L139.1111 194.747 L178.6667 207.7316 L218.2222 240.3158 L257.7778 272.661 L297.3333 273.0446 L336.8889 253.0638 L376.4445 229.7015 L416 204.3897 L416.0424 204.3668" style="fill:none; fill-rule:evenodd;"
      /><path d="M59.9576 241.2456 L60 241.2294 L99.5556 208.5842 L139.1111 205.7041 L178.6667 210.0981 L218.2222 222.2835 L257.7778 240.5098 L297.3333 238.235 L336.8889 227.7346 L376.4445 212.4866 L416 194.6248 L416.0424 194.6104" style="fill:none; fill-rule:evenodd;"
      /><path d="M59.9576 109.1576 L60 109.1934 L99.5556 149.1791 L139.1111 170.7586 L178.6667 169.1478 L218.2222 166.3903 L257.7778 166.907 L297.3333 165.2542 L336.8889 175.4248 L376.4445 172.4759" style="fill:none; fill-rule:evenodd;"
    /></g
  ></g
></svg
>
